<?xml version="1.0" encoding="utf-8"?>
<!-- Generator: Adobe Illustrator 23.0.3, SVG Export Plug-In . SVG Version: 6.00 Build 0)  -->
<svg version="1.1" id="Layer_1" xmlns="http://www.w3.org/2000/svg" xmlns:xlink="http://www.w3.org/1999/xlink" x="0px" y="0px"
	 viewBox="0 0 72 72" enable-background="new 0 0 72 72" xml:space="preserve">
<g>
	<circle fill="#68B5EB" cx="36" cy="36" r="36"/>
	<g>
		<g>
			<path fill="#359CE4" d="M46.264,16.967l8.585,20.793c0.295,0.714-0.05,1.499-0.769,1.755L17.934,52.363
				c-0.719,0.256-1.541-0.116-1.836-0.829L7.514,30.742c-0.295-0.714,0.05-1.499,0.769-1.755l36.148-12.849
				C45.149,15.883,45.97,16.254,46.264,16.967z"/>
			<path fill="#D8EEFD" d="M47.85,13.61l7.476,21.066c0.257,0.723-0.122,1.517-0.845,1.774L18.145,49.346
				c-0.723,0.257-1.517-0.122-1.774-0.845L8.896,27.436c-0.257-0.723,0.122-1.517,0.845-1.774l36.338-12.896
				C46.8,12.51,47.594,12.888,47.85,13.61z"/>
			<g>
				
					<rect x="13.622" y="35.599" transform="matrix(0.9424 -0.3345 0.3345 0.9424 -10.538 13.636)" fill="#0D83DD" width="41.412" height="3.639"/>
			</g>
			
				<rect x="13.527" y="27.139" transform="matrix(0.9424 -0.3345 0.3345 0.9424 -9.0454 7.1459)" fill="#EFC100" width="5.402" height="5.402"/>
		</g>
		<g>
			<path fill="#359CE4" d="M54.048,30.567l4.773,19.962c0.164,0.685-0.285,1.307-1.002,1.388L21.767,56.01
				c-0.717,0.081-1.432-0.408-1.595-1.093l-4.772-19.961c-0.164-0.685,0.285-1.307,1.002-1.388l36.053-4.093
				C53.171,29.393,53.885,29.882,54.048,30.567z"/>
		</g>
		<g>
			<path fill="#FFFFFF" d="M57.171,23.503l4.284,21.939c0.147,0.753-0.344,1.483-1.097,1.63l-37.842,7.389
				c-0.753,0.147-1.483-0.344-1.63-1.097l-4.284-21.938c-0.147-0.753,0.344-1.483,1.097-1.63l37.844-7.39
				C56.295,22.26,57.024,22.751,57.171,23.503z"/>
			<g>
				
					<rect x="19.629" y="43.228" transform="matrix(0.9815 -0.1916 0.1916 0.9815 -7.8852 8.5696)" fill="#0D83DD" width="41.457" height="3.639"/>
			</g>
			
				<rect x="20.799" y="32.185" transform="matrix(0.9815 -0.1916 0.1916 0.9815 -6.2502 5.1503)" fill="#F2CD33" width="5.402" height="5.402"/>
		</g>
	</g>
</g>
</svg>
